Входные данные,Через перебор делителей,Несколько оптимизаций перебора делителей,Решето Эратосфена со сложностью O(n log log n),Решето Эратосфена с оптимизацией памяти,Решето Эратосфена со сложностью O(n)
10,743.26ns,1981.5ns,12407ns,14013ns,1303.52ns
100,44517.72ns,5712.4ns,1813ns,1275ns,1590.96ns
1000,4ms,80489ns,8831ns,3504ns,5288.44ns
10000,347.2ms,1ms,41287ns,34277ns,42997.76ns
100000,34374ms,24.7ms,485811ns,216041ns,452919.4ns
1000000,> 5 minutes,592.8ms,5ms,2ms,3.88ms
10000000,> 5 minutes,14410ms,76ms,22ms,50.96ms
100000000,> 5 minutes,> 5 minutes,1258ms,253ms,807.36ms
1000000000,> 5 minutes,> 5 minutes,22488ms,3318ms,10622ms
123456789,> 5 minutes,> 5 minutes,1602ms,394ms,978ms